<?xml version="1.0" encoding="UTF-8"?>
<svg xmlns="http://www.w3.org/2000/svg" xmlns:xlink="http://www.w3.org/1999/xlink" width="279.843pt" height="21.121pt" viewBox="0 0 279.843 21.121" version="1.1">
<defs>
<g>
<symbol overflow="visible" id="glyph-1575027220788896-0-0">
<path style="stroke:none;" d=""/>
</symbol>
<symbol overflow="visible" id="glyph-1575027220788896-0-1">
<path style="stroke:none;" d="M 3.484375 -3.875 L 2.203125 -4.171875 C 1.578125 -4.328125 1.203125 -4.859375 1.203125 -5.4375 C 1.203125 -6.140625 1.734375 -6.75 2.515625 -6.75 C 4.171875 -6.75 4.390625 -5.109375 4.453125 -4.671875 C 4.46875 -4.609375 4.46875 -4.546875 4.578125 -4.546875 C 4.703125 -4.546875 4.703125 -4.59375 4.703125 -4.78125 L 4.703125 -6.78125 C 4.703125 -6.953125 4.703125 -7.03125 4.59375 -7.03125 C 4.53125 -7.03125 4.515625 -7.015625 4.453125 -6.890625 L 4.09375 -6.328125 C 3.796875 -6.625 3.390625 -7.03125 2.5 -7.03125 C 1.390625 -7.03125 0.5625 -6.15625 0.5625 -5.09375 C 0.5625 -4.265625 1.09375 -3.53125 1.859375 -3.265625 C 1.96875 -3.234375 2.484375 -3.109375 3.1875 -2.9375 C 3.453125 -2.875 3.75 -2.796875 4.03125 -2.4375 C 4.234375 -2.171875 4.34375 -1.84375 4.34375 -1.515625 C 4.34375 -0.8125 3.84375 -0.09375 3 -0.09375 C 2.71875 -0.09375 1.953125 -0.140625 1.421875 -0.625 C 0.84375 -1.171875 0.8125 -1.796875 0.8125 -2.15625 C 0.796875 -2.265625 0.71875 -2.265625 0.6875 -2.265625 C 0.5625 -2.265625 0.5625 -2.1875 0.5625 -2.015625 L 0.5625 -0.015625 C 0.5625 0.15625 0.5625 0.21875 0.671875 0.21875 C 0.734375 0.21875 0.75 0.203125 0.8125 0.09375 C 0.8125 0.078125 0.84375 0.046875 1.171875 -0.484375 C 1.484375 -0.140625 2.125 0.21875 3.015625 0.21875 C 4.171875 0.21875 4.96875 -0.75 4.96875 -1.859375 C 4.96875 -2.84375 4.3125 -3.671875 3.484375 -3.875 Z M 3.484375 -3.875 "/>
</symbol>
<symbol overflow="visible" id="glyph-1575027220788896-0-2">
<path style="stroke:none;" d="M 1.71875 -3.984375 L 3.15625 -3.984375 L 3.15625 -4.296875 L 1.71875 -4.296875 L 1.71875 -6.125 L 1.46875 -6.125 C 1.46875 -5.3125 1.171875 -4.25 0.1875 -4.203125 L 0.1875 -3.984375 L 1.03125 -3.984375 L 1.03125 -1.234375 C 1.03125 -0.015625 1.96875 0.109375 2.328125 0.109375 C 3.03125 0.109375 3.3125 -0.59375 3.3125 -1.234375 L 3.3125 -1.796875 L 3.0625 -1.796875 L 3.0625 -1.25 C 3.0625 -0.515625 2.765625 -0.140625 2.390625 -0.140625 C 1.71875 -0.140625 1.71875 -1.046875 1.71875 -1.21875 Z M 1.71875 -3.984375 "/>
</symbol>
<symbol overflow="visible" id="glyph-1575027220788896-0-3">
<path style="stroke:none;" d="M 1.109375 -2.515625 C 1.171875 -4 2.015625 -4.25 2.359375 -4.25 C 3.375 -4.25 3.484375 -2.90625 3.484375 -2.515625 Z M 1.109375 -2.296875 L 3.890625 -2.296875 C 4.109375 -2.296875 4.140625 -2.296875 4.140625 -2.515625 C 4.140625 -3.5 3.59375 -4.46875 2.359375 -4.46875 C 1.203125 -4.46875 0.28125 -3.4375 0.28125 -2.1875 C 0.28125 -0.859375 1.328125 0.109375 2.46875 0.109375 C 3.6875 0.109375 4.140625 -1 4.140625 -1.1875 C 4.140625 -1.28125 4.0625 -1.3125 4 -1.3125 C 3.921875 -1.3125 3.890625 -1.25 3.875 -1.171875 C 3.53125 -0.140625 2.625 -0.140625 2.53125 -0.140625 C 2.03125 -0.140625 1.640625 -0.4375 1.40625 -0.8125 C 1.109375 -1.28125 1.109375 -1.9375 1.109375 -2.296875 Z M 1.109375 -2.296875 "/>
</symbol>
<symbol overflow="visible" id="glyph-1575027220788896-0-4">
<path style="stroke:none;" d="M 1.71875 -3.75 L 1.71875 -4.40625 L 0.28125 -4.296875 L 0.28125 -3.984375 C 0.984375 -3.984375 1.0625 -3.921875 1.0625 -3.484375 L 1.0625 1.171875 C 1.0625 1.625 0.953125 1.625 0.28125 1.625 L 0.28125 1.9375 C 0.625 1.921875 1.140625 1.90625 1.390625 1.90625 C 1.671875 1.90625 2.171875 1.921875 2.515625 1.9375 L 2.515625 1.625 C 1.859375 1.625 1.75 1.625 1.75 1.171875 L 1.75 -0.59375 C 1.796875 -0.421875 2.21875 0.109375 2.96875 0.109375 C 4.15625 0.109375 5.1875 -0.875 5.1875 -2.15625 C 5.1875 -3.421875 4.234375 -4.40625 3.109375 -4.40625 C 2.328125 -4.40625 1.90625 -3.96875 1.71875 -3.75 Z M 1.75 -1.140625 L 1.75 -3.359375 C 2.03125 -3.875 2.515625 -4.15625 3.03125 -4.15625 C 3.765625 -4.15625 4.359375 -3.28125 4.359375 -2.15625 C 4.359375 -0.953125 3.671875 -0.109375 2.9375 -0.109375 C 2.53125 -0.109375 2.15625 -0.3125 1.890625 -0.71875 C 1.75 -0.921875 1.75 -0.9375 1.75 -1.140625 Z M 1.75 -1.140625 "/>
</symbol>
<symbol overflow="visible" id="glyph-1575027220788896-0-5">
<path style="stroke:none;" d="M 1.765625 -4.40625 L 0.375 -4.296875 L 0.375 -3.984375 C 1.015625 -3.984375 1.109375 -3.921875 1.109375 -3.4375 L 1.109375 -0.75 C 1.109375 -0.3125 1 -0.3125 0.328125 -0.3125 L 0.328125 0 C 0.640625 -0.015625 1.1875 -0.03125 1.421875 -0.03125 C 1.78125 -0.03125 2.125 -0.015625 2.46875 0 L 2.46875 -0.3125 C 1.796875 -0.3125 1.765625 -0.359375 1.765625 -0.75 Z M 1.796875 -6.140625 C 1.796875 -6.453125 1.5625 -6.671875 1.28125 -6.671875 C 0.96875 -6.671875 0.75 -6.40625 0.75 -6.140625 C 0.75 -5.875 0.96875 -5.609375 1.28125 -5.609375 C 1.5625 -5.609375 1.796875 -5.828125 1.796875 -6.140625 Z M 1.796875 -6.140625 "/>
</symbol>
<symbol overflow="visible" id="glyph-1575027220788896-0-6">
<path style="stroke:none;" d="M 1.09375 -3.421875 L 1.09375 -0.75 C 1.09375 -0.3125 0.984375 -0.3125 0.3125 -0.3125 L 0.3125 0 C 0.671875 -0.015625 1.171875 -0.03125 1.453125 -0.03125 C 1.703125 -0.03125 2.21875 -0.015625 2.5625 0 L 2.5625 -0.3125 C 1.890625 -0.3125 1.78125 -0.3125 1.78125 -0.75 L 1.78125 -2.59375 C 1.78125 -3.625 2.5 -4.1875 3.125 -4.1875 C 3.765625 -4.1875 3.875 -3.65625 3.875 -3.078125 L 3.875 -0.75 C 3.875 -0.3125 3.765625 -0.3125 3.09375 -0.3125 L 3.09375 0 C 3.4375 -0.015625 3.953125 -0.03125 4.21875 -0.03125 C 4.46875 -0.03125 5 -0.015625 5.328125 0 L 5.328125 -0.3125 C 4.8125 -0.3125 4.5625 -0.3125 4.5625 -0.609375 L 4.5625 -2.515625 C 4.5625 -3.375 4.5625 -3.671875 4.25 -4.03125 C 4.109375 -4.203125 3.78125 -4.40625 3.203125 -4.40625 C 2.46875 -4.40625 2 -3.984375 1.71875 -3.359375 L 1.71875 -4.40625 L 0.3125 -4.296875 L 0.3125 -3.984375 C 1.015625 -3.984375 1.09375 -3.921875 1.09375 -3.421875 Z M 1.09375 -3.421875 "/>
</symbol>
<symbol overflow="visible" id="glyph-1575027220788896-0-7">
<path style="stroke:none;" d="M 3.890625 -0.78125 L 3.890625 0.109375 L 5.328125 0 L 5.328125 -0.3125 C 4.640625 -0.3125 4.5625 -0.375 4.5625 -0.875 L 4.5625 -4.40625 L 3.09375 -4.296875 L 3.09375 -3.984375 C 3.78125 -3.984375 3.875 -3.921875 3.875 -3.421875 L 3.875 -1.65625 C 3.875 -0.78125 3.390625 -0.109375 2.65625 -0.109375 C 1.828125 -0.109375 1.78125 -0.578125 1.78125 -1.09375 L 1.78125 -4.40625 L 0.3125 -4.296875 L 0.3125 -3.984375 C 1.09375 -3.984375 1.09375 -3.953125 1.09375 -3.078125 L 1.09375 -1.578125 C 1.09375 -0.796875 1.09375 0.109375 2.609375 0.109375 C 3.171875 0.109375 3.609375 -0.171875 3.890625 -0.78125 Z M 3.890625 -0.78125 "/>
</symbol>
<symbol overflow="visible" id="glyph-1575027220788896-1-0">
<path style="stroke:none;" d=""/>
</symbol>
<symbol overflow="visible" id="glyph-1575027220788896-1-1">
<path style="stroke:none;" d="M 4.828125 -4.09375 L 4 -6.078125 C 3.96875 -6.15625 3.953125 -6.203125 3.953125 -6.203125 C 3.953125 -6.265625 4.109375 -6.453125 4.53125 -6.5 C 4.640625 -6.515625 4.734375 -6.515625 4.734375 -6.6875 C 4.734375 -6.8125 4.609375 -6.8125 4.578125 -6.8125 C 4.171875 -6.8125 3.75 -6.78125 3.328125 -6.78125 C 3.078125 -6.78125 2.46875 -6.8125 2.21875 -6.8125 C 2.15625 -6.8125 2.03125 -6.8125 2.03125 -6.609375 C 2.03125 -6.5 2.140625 -6.5 2.265625 -6.5 C 2.859375 -6.5 2.921875 -6.40625 3.015625 -6.1875 L 4.1875 -3.40625 L 2.078125 -1.140625 L 1.953125 -1.03125 C 1.46875 -0.5 1 -0.34375 0.484375 -0.3125 C 0.359375 -0.296875 0.265625 -0.296875 0.265625 -0.109375 C 0.265625 -0.09375 0.265625 0 0.40625 0 C 0.703125 0 1.03125 -0.03125 1.328125 -0.03125 C 1.703125 -0.03125 2.09375 0 2.453125 0 C 2.515625 0 2.625 0 2.625 -0.203125 C 2.625 -0.296875 2.53125 -0.3125 2.515625 -0.3125 C 2.421875 -0.3125 2.109375 -0.34375 2.109375 -0.625 C 2.109375 -0.78125 2.265625 -0.9375 2.375 -1.0625 L 3.40625 -2.140625 L 4.296875 -3.125 L 5.296875 -0.734375 C 5.34375 -0.625 5.359375 -0.625 5.359375 -0.59375 C 5.359375 -0.515625 5.15625 -0.34375 4.78125 -0.3125 C 4.671875 -0.296875 4.578125 -0.296875 4.578125 -0.125 C 4.578125 0 4.6875 0 4.71875 0 C 5 0 5.703125 -0.03125 5.984375 -0.03125 C 6.234375 -0.03125 6.84375 0 7.09375 0 C 7.15625 0 7.28125 0 7.28125 -0.1875 C 7.28125 -0.3125 7.171875 -0.3125 7.09375 -0.3125 C 6.4375 -0.3125 6.40625 -0.34375 6.234375 -0.75 C 5.859375 -1.671875 5.1875 -3.234375 4.953125 -3.828125 C 5.625 -4.53125 6.671875 -5.71875 7 -5.984375 C 7.28125 -6.234375 7.671875 -6.46875 8.265625 -6.5 C 8.390625 -6.515625 8.484375 -6.515625 8.484375 -6.703125 C 8.484375 -6.703125 8.484375 -6.8125 8.359375 -6.8125 C 8.0625 -6.8125 7.71875 -6.78125 7.421875 -6.78125 C 7.046875 -6.78125 6.671875 -6.8125 6.3125 -6.8125 C 6.25 -6.8125 6.125 -6.8125 6.125 -6.609375 C 6.125 -6.546875 6.171875 -6.515625 6.234375 -6.5 C 6.328125 -6.484375 6.640625 -6.46875 6.640625 -6.1875 C 6.640625 -6.046875 6.53125 -5.921875 6.453125 -5.828125 Z M 4.828125 -4.09375 "/>
</symbol>
<symbol overflow="visible" id="glyph-1575027220788896-1-2">
<path style="stroke:none;" d="M 1.90625 -0.53125 C 1.90625 -0.8125 1.671875 -1.0625 1.390625 -1.0625 C 1.09375 -1.0625 0.859375 -0.8125 0.859375 -0.53125 C 0.859375 -0.234375 1.09375 0 1.390625 0 C 1.671875 0 1.90625 -0.234375 1.90625 -0.53125 Z M 1.90625 -0.53125 "/>
</symbol>
<symbol overflow="visible" id="glyph-1575027220788896-2-0">
<path style="stroke:none;" d=""/>
</symbol>
<symbol overflow="visible" id="glyph-1575027220788896-2-1">
<path style="stroke:none;" d="M 2.328125 -4.4375 C 2.328125 -4.625 2.328125 -4.625 2.125 -4.625 C 1.671875 -4.1875 1.046875 -4.1875 0.765625 -4.1875 L 0.765625 -3.9375 C 0.921875 -3.9375 1.390625 -3.9375 1.765625 -4.125 L 1.765625 -0.578125 C 1.765625 -0.34375 1.765625 -0.25 1.078125 -0.25 L 0.8125 -0.25 L 0.8125 0 C 0.9375 0 1.796875 -0.03125 2.046875 -0.03125 C 2.265625 -0.03125 3.140625 0 3.296875 0 L 3.296875 -0.25 L 3.03125 -0.25 C 2.328125 -0.25 2.328125 -0.34375 2.328125 -0.578125 Z M 2.328125 -4.4375 "/>
</symbol>
<symbol overflow="visible" id="glyph-1575027220788896-2-2">
<path style="stroke:none;" d="M 3.515625 -1.265625 L 3.28125 -1.265625 C 3.265625 -1.109375 3.1875 -0.703125 3.09375 -0.640625 C 3.046875 -0.59375 2.515625 -0.59375 2.40625 -0.59375 L 1.125 -0.59375 C 1.859375 -1.234375 2.109375 -1.4375 2.515625 -1.765625 C 3.03125 -2.171875 3.515625 -2.609375 3.515625 -3.265625 C 3.515625 -4.109375 2.78125 -4.625 1.890625 -4.625 C 1.03125 -4.625 0.4375 -4.015625 0.4375 -3.375 C 0.4375 -3.03125 0.734375 -2.984375 0.8125 -2.984375 C 0.96875 -2.984375 1.171875 -3.109375 1.171875 -3.359375 C 1.171875 -3.484375 1.125 -3.734375 0.765625 -3.734375 C 0.984375 -4.21875 1.453125 -4.375 1.78125 -4.375 C 2.484375 -4.375 2.84375 -3.828125 2.84375 -3.265625 C 2.84375 -2.65625 2.40625 -2.1875 2.1875 -1.9375 L 0.515625 -0.265625 C 0.4375 -0.203125 0.4375 -0.1875 0.4375 0 L 3.3125 0 Z M 3.515625 -1.265625 "/>
</symbol>
<symbol overflow="visible" id="glyph-1575027220788896-2-3">
<path style="stroke:none;" d="M 1.90625 -2.328125 C 2.453125 -2.328125 2.84375 -1.953125 2.84375 -1.203125 C 2.84375 -0.34375 2.328125 -0.078125 1.9375 -0.078125 C 1.65625 -0.078125 1.03125 -0.15625 0.75 -0.578125 C 1.078125 -0.578125 1.15625 -0.8125 1.15625 -0.96875 C 1.15625 -1.1875 0.984375 -1.34375 0.765625 -1.34375 C 0.578125 -1.34375 0.375 -1.21875 0.375 -0.9375 C 0.375 -0.28125 1.09375 0.140625 1.9375 0.140625 C 2.90625 0.140625 3.578125 -0.515625 3.578125 -1.203125 C 3.578125 -1.75 3.140625 -2.296875 2.375 -2.453125 C 3.09375 -2.71875 3.359375 -3.234375 3.359375 -3.671875 C 3.359375 -4.21875 2.734375 -4.625 1.953125 -4.625 C 1.1875 -4.625 0.59375 -4.25 0.59375 -3.6875 C 0.59375 -3.453125 0.75 -3.328125 0.953125 -3.328125 C 1.171875 -3.328125 1.3125 -3.484375 1.3125 -3.671875 C 1.3125 -3.875 1.171875 -4.03125 0.953125 -4.046875 C 1.203125 -4.34375 1.671875 -4.421875 1.9375 -4.421875 C 2.25 -4.421875 2.6875 -4.265625 2.6875 -3.671875 C 2.6875 -3.375 2.59375 -3.046875 2.40625 -2.84375 C 2.1875 -2.578125 1.984375 -2.5625 1.640625 -2.53125 C 1.46875 -2.515625 1.453125 -2.515625 1.421875 -2.515625 C 1.40625 -2.515625 1.34375 -2.5 1.34375 -2.421875 C 1.34375 -2.328125 1.40625 -2.328125 1.53125 -2.328125 Z M 1.90625 -2.328125 "/>
</symbol>
<symbol overflow="visible" id="glyph-1575027220788896-3-0">
<path style="stroke:none;" d=""/>
</symbol>
<symbol overflow="visible" id="glyph-1575027220788896-3-1">
<path style="stroke:none;" d="M 0.84375 -0.4375 C 0.828125 -0.34375 0.78125 -0.171875 0.78125 -0.15625 C 0.78125 0 0.90625 0.0625 1.015625 0.0625 C 1.140625 0.0625 1.25 -0.015625 1.296875 -0.078125 C 1.328125 -0.140625 1.375 -0.375 1.421875 -0.515625 C 1.453125 -0.640625 1.53125 -0.96875 1.5625 -1.140625 C 1.609375 -1.296875 1.65625 -1.453125 1.6875 -1.609375 C 1.765625 -1.890625 1.78125 -1.953125 1.984375 -2.234375 C 2.171875 -2.515625 2.5 -2.875 3.03125 -2.875 C 3.421875 -2.875 3.4375 -2.515625 3.4375 -2.390625 C 3.4375 -1.96875 3.140625 -1.203125 3.03125 -0.90625 C 2.953125 -0.703125 2.921875 -0.640625 2.921875 -0.53125 C 2.921875 -0.15625 3.21875 0.0625 3.578125 0.0625 C 4.28125 0.0625 4.578125 -0.890625 4.578125 -1 C 4.578125 -1.09375 4.5 -1.09375 4.46875 -1.09375 C 4.375 -1.09375 4.375 -1.046875 4.34375 -0.96875 C 4.1875 -0.40625 3.875 -0.125 3.609375 -0.125 C 3.453125 -0.125 3.421875 -0.21875 3.421875 -0.375 C 3.421875 -0.53125 3.46875 -0.625 3.59375 -0.9375 C 3.671875 -1.15625 3.953125 -1.890625 3.953125 -2.28125 C 3.953125 -2.953125 3.421875 -3.078125 3.046875 -3.078125 C 2.46875 -3.078125 2.078125 -2.71875 1.875 -2.4375 C 1.828125 -2.921875 1.421875 -3.078125 1.125 -3.078125 C 0.828125 -3.078125 0.671875 -2.859375 0.578125 -2.703125 C 0.421875 -2.4375 0.328125 -2.046875 0.328125 -2 C 0.328125 -1.921875 0.421875 -1.921875 0.453125 -1.921875 C 0.546875 -1.921875 0.546875 -1.9375 0.59375 -2.125 C 0.703125 -2.53125 0.84375 -2.875 1.109375 -2.875 C 1.296875 -2.875 1.34375 -2.71875 1.34375 -2.53125 C 1.34375 -2.40625 1.28125 -2.140625 1.21875 -1.953125 C 1.171875 -1.765625 1.109375 -1.484375 1.078125 -1.328125 Z M 0.84375 -0.4375 "/>
</symbol>
</g>
<clipPath id="clip-1575027220788896-1">
  <path d="M 0 1 L 55 1 L 55 21 L 0 21 Z M 0 1 "/>
</clipPath>
<clipPath id="clip-1575027220788896-2">
  <path d="M 27.566406 0.597656 L 44.574219 0.597656 C 50.074219 0.597656 54.535156 5.058594 54.535156 10.5625 C 54.535156 16.0625 50.074219 20.523438 44.574219 20.523438 L 10.558594 20.523438 C 5.058594 20.523438 0.597656 16.0625 0.597656 10.5625 C 0.597656 5.058594 5.058594 0.597656 10.558594 0.597656 Z M 27.566406 0.597656 "/>
</clipPath>
<linearGradient id="linear-1575027220788896-0" gradientUnits="userSpaceOnUse" x1="0" y1="25.003086" x2="0" y2="74.996914" gradientTransform="matrix(1.07892,0,0,-0.39856,-26.38,30.489)">
<stop offset="0" style="stop-color:rgb(100%,80.000305%,80.000305%);stop-opacity:1;"/>
<stop offset="0.015625" style="stop-color:rgb(100%,80.155945%,80.155945%);stop-opacity:1;"/>
<stop offset="0.03125" style="stop-color:rgb(100%,80.46875%,80.46875%);stop-opacity:1;"/>
<stop offset="0.046875" style="stop-color:rgb(100%,80.781555%,80.781555%);stop-opacity:1;"/>
<stop offset="0.0625" style="stop-color:rgb(100%,81.092834%,81.092834%);stop-opacity:1;"/>
<stop offset="0.078125" style="stop-color:rgb(100%,81.40564%,81.40564%);stop-opacity:1;"/>
<stop offset="0.09375" style="stop-color:rgb(100%,81.718445%,81.718445%);stop-opacity:1;"/>
<stop offset="0.109375" style="stop-color:rgb(100%,82.03125%,82.03125%);stop-opacity:1;"/>
<stop offset="0.125" style="stop-color:rgb(100%,82.344055%,82.344055%);stop-opacity:1;"/>
<stop offset="0.140625" style="stop-color:rgb(100%,82.655334%,82.655334%);stop-opacity:1;"/>
<stop offset="0.15625" style="stop-color:rgb(100%,82.96814%,82.96814%);stop-opacity:1;"/>
<stop offset="0.171875" style="stop-color:rgb(100%,83.280945%,83.280945%);stop-opacity:1;"/>
<stop offset="0.1875" style="stop-color:rgb(100%,83.59375%,83.59375%);stop-opacity:1;"/>
<stop offset="0.203125" style="stop-color:rgb(100%,83.906555%,83.906555%);stop-opacity:1;"/>
<stop offset="0.21875" style="stop-color:rgb(100%,84.217834%,84.217834%);stop-opacity:1;"/>
<stop offset="0.234375" style="stop-color:rgb(100%,84.53064%,84.53064%);stop-opacity:1;"/>
<stop offset="0.25" style="stop-color:rgb(100%,84.843445%,84.843445%);stop-opacity:1;"/>
<stop offset="0.265625" style="stop-color:rgb(100%,85.15625%,85.15625%);stop-opacity:1;"/>
<stop offset="0.28125" style="stop-color:rgb(100%,85.467529%,85.467529%);stop-opacity:1;"/>
<stop offset="0.296875" style="stop-color:rgb(100%,85.780334%,85.780334%);stop-opacity:1;"/>
<stop offset="0.3125" style="stop-color:rgb(100%,86.09314%,86.09314%);stop-opacity:1;"/>
<stop offset="0.328125" style="stop-color:rgb(100%,86.405945%,86.405945%);stop-opacity:1;"/>
<stop offset="0.34375" style="stop-color:rgb(100%,86.71875%,86.71875%);stop-opacity:1;"/>
<stop offset="0.359375" style="stop-color:rgb(100%,87.030029%,87.030029%);stop-opacity:1;"/>
<stop offset="0.375" style="stop-color:rgb(100%,87.342834%,87.342834%);stop-opacity:1;"/>
<stop offset="0.390625" style="stop-color:rgb(100%,87.65564%,87.65564%);stop-opacity:1;"/>
<stop offset="0.40625" style="stop-color:rgb(100%,87.968445%,87.968445%);stop-opacity:1;"/>
<stop offset="0.421875" style="stop-color:rgb(100%,88.28125%,88.28125%);stop-opacity:1;"/>
<stop offset="0.4375" style="stop-color:rgb(100%,88.592529%,88.592529%);stop-opacity:1;"/>
<stop offset="0.453125" style="stop-color:rgb(100%,88.905334%,88.905334%);stop-opacity:1;"/>
<stop offset="0.46875" style="stop-color:rgb(100%,89.21814%,89.21814%);stop-opacity:1;"/>
<stop offset="0.484375" style="stop-color:rgb(100%,89.530945%,89.530945%);stop-opacity:1;"/>
<stop offset="0.5" style="stop-color:rgb(100%,89.84375%,89.84375%);stop-opacity:1;"/>
<stop offset="0.515625" style="stop-color:rgb(100%,90.155029%,90.155029%);stop-opacity:1;"/>
<stop offset="0.53125" style="stop-color:rgb(100%,90.467834%,90.467834%);stop-opacity:1;"/>
<stop offset="0.546875" style="stop-color:rgb(100%,90.78064%,90.78064%);stop-opacity:1;"/>
<stop offset="0.5625" style="stop-color:rgb(100%,91.093445%,91.093445%);stop-opacity:1;"/>
<stop offset="0.578125" style="stop-color:rgb(100%,91.404724%,91.404724%);stop-opacity:1;"/>
<stop offset="0.59375" style="stop-color:rgb(100%,91.717529%,91.717529%);stop-opacity:1;"/>
<stop offset="0.609375" style="stop-color:rgb(100%,92.030334%,92.030334%);stop-opacity:1;"/>
<stop offset="0.625" style="stop-color:rgb(100%,92.34314%,92.34314%);stop-opacity:1;"/>
<stop offset="0.640625" style="stop-color:rgb(100%,92.654419%,92.654419%);stop-opacity:1;"/>
<stop offset="0.65625" style="stop-color:rgb(100%,92.967224%,92.967224%);stop-opacity:1;"/>
<stop offset="0.671875" style="stop-color:rgb(100%,93.280029%,93.280029%);stop-opacity:1;"/>
<stop offset="0.6875" style="stop-color:rgb(100%,93.592834%,93.592834%);stop-opacity:1;"/>
<stop offset="0.703125" style="stop-color:rgb(100%,93.904114%,93.904114%);stop-opacity:1;"/>
<stop offset="0.71875" style="stop-color:rgb(100%,94.216919%,94.216919%);stop-opacity:1;"/>
<stop offset="0.734375" style="stop-color:rgb(100%,94.529724%,94.529724%);stop-opacity:1;"/>
<stop offset="0.75" style="stop-color:rgb(100%,94.842529%,94.842529%);stop-opacity:1;"/>
<stop offset="0.765625" style="stop-color:rgb(100%,95.153809%,95.153809%);stop-opacity:1;"/>
<stop offset="0.78125" style="stop-color:rgb(100%,95.466614%,95.466614%);stop-opacity:1;"/>
<stop offset="0.796875" style="stop-color:rgb(100%,95.779419%,95.779419%);stop-opacity:1;"/>
<stop offset="0.8125" style="stop-color:rgb(100%,96.092224%,96.092224%);stop-opacity:1;"/>
<stop offset="0.828125" style="stop-color:rgb(100%,96.403503%,96.403503%);stop-opacity:1;"/>
<stop offset="0.84375" style="stop-color:rgb(100%,96.716309%,96.716309%);stop-opacity:1;"/>
<stop offset="0.859375" style="stop-color:rgb(100%,97.029114%,97.029114%);stop-opacity:1;"/>
<stop offset="0.875" style="stop-color:rgb(100%,97.341919%,97.341919%);stop-opacity:1;"/>
<stop offset="0.890625" style="stop-color:rgb(100%,97.653198%,97.653198%);stop-opacity:1;"/>
<stop offset="0.90625" style="stop-color:rgb(100%,97.966003%,97.966003%);stop-opacity:1;"/>
<stop offset="0.921875" style="stop-color:rgb(100%,98.278809%,98.278809%);stop-opacity:1;"/>
<stop offset="0.9375" style="stop-color:rgb(100%,98.591614%,98.591614%);stop-opacity:1;"/>
<stop offset="0.953125" style="stop-color:rgb(100%,98.902893%,98.902893%);stop-opacity:1;"/>
<stop offset="0.96875" style="stop-color:rgb(100%,99.215698%,99.215698%);stop-opacity:1;"/>
<stop offset="0.984375" style="stop-color:rgb(100%,99.528503%,99.528503%);stop-opacity:1;"/>
<stop offset="1" style="stop-color:rgb(100%,99.841309%,99.841309%);stop-opacity:1;"/>
</linearGradient>
<clipPath id="clip-1575027220788896-3">
  <path d="M 0 0 L 72 0 L 72 21.121094 L 0 21.121094 Z M 0 0 "/>
</clipPath>
<clipPath id="clip-1575027220788896-4">
  <path d="M 88 1 L 109 1 L 109 21 L 88 21 Z M 88 1 "/>
</clipPath>
<clipPath id="clip-1575027220788896-5">
  <path d="M 98.433594 0.597656 L 98.726562 0.597656 C 104.230469 0.597656 108.691406 5.058594 108.691406 10.5625 C 108.691406 16.0625 104.230469 20.523438 98.726562 20.523438 L 98.140625 20.523438 C 92.636719 20.523438 88.175781 16.0625 88.175781 10.5625 C 88.175781 5.058594 92.636719 0.597656 98.140625 0.597656 Z M 98.433594 0.597656 "/>
</clipPath>
<linearGradient id="linear-1575027220788896-1" gradientUnits="userSpaceOnUse" x1="0" y1="25.003086" x2="0" y2="74.996914" gradientTransform="matrix(0.41032,0,0,-0.39856,77.917,30.489)">
<stop offset="0" style="stop-color:rgb(80.000305%,80.000305%,80.000305%);stop-opacity:1;"/>
<stop offset="0.015625" style="stop-color:rgb(80.155945%,80.155945%,80.155945%);stop-opacity:1;"/>
<stop offset="0.03125" style="stop-color:rgb(80.46875%,80.46875%,80.46875%);stop-opacity:1;"/>
<stop offset="0.046875" style="stop-color:rgb(80.781555%,80.781555%,80.781555%);stop-opacity:1;"/>
<stop offset="0.0625" style="stop-color:rgb(81.092834%,81.092834%,81.092834%);stop-opacity:1;"/>
<stop offset="0.078125" style="stop-color:rgb(81.40564%,81.40564%,81.40564%);stop-opacity:1;"/>
<stop offset="0.09375" style="stop-color:rgb(81.718445%,81.718445%,81.718445%);stop-opacity:1;"/>
<stop offset="0.109375" style="stop-color:rgb(82.03125%,82.03125%,82.03125%);stop-opacity:1;"/>
<stop offset="0.125" style="stop-color:rgb(82.344055%,82.344055%,82.344055%);stop-opacity:1;"/>
<stop offset="0.140625" style="stop-color:rgb(82.655334%,82.655334%,82.655334%);stop-opacity:1;"/>
<stop offset="0.15625" style="stop-color:rgb(82.96814%,82.96814%,82.96814%);stop-opacity:1;"/>
<stop offset="0.171875" style="stop-color:rgb(83.280945%,83.280945%,83.280945%);stop-opacity:1;"/>
<stop offset="0.1875" style="stop-color:rgb(83.59375%,83.59375%,83.59375%);stop-opacity:1;"/>
<stop offset="0.203125" style="stop-color:rgb(83.906555%,83.906555%,83.906555%);stop-opacity:1;"/>
<stop offset="0.21875" style="stop-color:rgb(84.217834%,84.217834%,84.217834%);stop-opacity:1;"/>
<stop offset="0.234375" style="stop-color:rgb(84.53064%,84.53064%,84.53064%);stop-opacity:1;"/>
<stop offset="0.25" style="stop-color:rgb(84.843445%,84.843445%,84.843445%);stop-opacity:1;"/>
<stop offset="0.265625" style="stop-color:rgb(85.15625%,85.15625%,85.15625%);stop-opacity:1;"/>
<stop offset="0.28125" style="stop-color:rgb(85.467529%,85.467529%,85.467529%);stop-opacity:1;"/>
<stop offset="0.296875" style="stop-color:rgb(85.780334%,85.780334%,85.780334%);stop-opacity:1;"/>
<stop offset="0.3125" style="stop-color:rgb(86.09314%,86.09314%,86.09314%);stop-opacity:1;"/>
<stop offset="0.328125" style="stop-color:rgb(86.405945%,86.405945%,86.405945%);stop-opacity:1;"/>
<stop offset="0.34375" style="stop-color:rgb(86.71875%,86.71875%,86.71875%);stop-opacity:1;"/>
<stop offset="0.359375" style="stop-color:rgb(87.030029%,87.030029%,87.030029%);stop-opacity:1;"/>
<stop offset="0.375" style="stop-color:rgb(87.342834%,87.342834%,87.342834%);stop-opacity:1;"/>
<stop offset="0.390625" style="stop-color:rgb(87.65564%,87.65564%,87.65564%);stop-opacity:1;"/>
<stop offset="0.40625" style="stop-color:rgb(87.968445%,87.968445%,87.968445%);stop-opacity:1;"/>
<stop offset="0.421875" style="stop-color:rgb(88.28125%,88.28125%,88.28125%);stop-opacity:1;"/>
<stop offset="0.4375" style="stop-color:rgb(88.592529%,88.592529%,88.592529%);stop-opacity:1;"/>
<stop offset="0.453125" style="stop-color:rgb(88.905334%,88.905334%,88.905334%);stop-opacity:1;"/>
<stop offset="0.46875" style="stop-color:rgb(89.21814%,89.21814%,89.21814%);stop-opacity:1;"/>
<stop offset="0.484375" style="stop-color:rgb(89.530945%,89.530945%,89.530945%);stop-opacity:1;"/>
<stop offset="0.5" style="stop-color:rgb(89.84375%,89.84375%,89.84375%);stop-opacity:1;"/>
<stop offset="0.515625" style="stop-color:rgb(90.155029%,90.155029%,90.155029%);stop-opacity:1;"/>
<stop offset="0.53125" style="stop-color:rgb(90.467834%,90.467834%,90.467834%);stop-opacity:1;"/>
<stop offset="0.546875" style="stop-color:rgb(90.78064%,90.78064%,90.78064%);stop-opacity:1;"/>
<stop offset="0.5625" style="stop-color:rgb(91.093445%,91.093445%,91.093445%);stop-opacity:1;"/>
<stop offset="0.578125" style="stop-color:rgb(91.404724%,91.404724%,91.404724%);stop-opacity:1;"/>
<stop offset="0.59375" style="stop-color:rgb(91.717529%,91.717529%,91.717529%);stop-opacity:1;"/>
<stop offset="0.609375" style="stop-color:rgb(92.030334%,92.030334%,92.030334%);stop-opacity:1;"/>
<stop offset="0.625" style="stop-color:rgb(92.34314%,92.34314%,92.34314%);stop-opacity:1;"/>
<stop offset="0.640625" style="stop-color:rgb(92.654419%,92.654419%,92.654419%);stop-opacity:1;"/>
<stop offset="0.65625" style="stop-color:rgb(92.967224%,92.967224%,92.967224%);stop-opacity:1;"/>
<stop offset="0.671875" style="stop-color:rgb(93.280029%,93.280029%,93.280029%);stop-opacity:1;"/>
<stop offset="0.6875" style="stop-color:rgb(93.592834%,93.592834%,93.592834%);stop-opacity:1;"/>
<stop offset="0.703125" style="stop-color:rgb(93.904114%,93.904114%,93.904114%);stop-opacity:1;"/>
<stop offset="0.71875" style="stop-color:rgb(94.216919%,94.216919%,94.216919%);stop-opacity:1;"/>
<stop offset="0.734375" style="stop-color:rgb(94.529724%,94.529724%,94.529724%);stop-opacity:1;"/>
<stop offset="0.75" style="stop-color:rgb(94.842529%,94.842529%,94.842529%);stop-opacity:1;"/>
<stop offset="0.765625" style="stop-color:rgb(95.153809%,95.153809%,95.153809%);stop-opacity:1;"/>
<stop offset="0.78125" style="stop-color:rgb(95.466614%,95.466614%,95.466614%);stop-opacity:1;"/>
<stop offset="0.796875" style="stop-color:rgb(95.779419%,95.779419%,95.779419%);stop-opacity:1;"/>
<stop offset="0.8125" style="stop-color:rgb(96.092224%,96.092224%,96.092224%);stop-opacity:1;"/>
<stop offset="0.828125" style="stop-color:rgb(96.403503%,96.403503%,96.403503%);stop-opacity:1;"/>
<stop offset="0.84375" style="stop-color:rgb(96.716309%,96.716309%,96.716309%);stop-opacity:1;"/>
<stop offset="0.859375" style="stop-color:rgb(97.029114%,97.029114%,97.029114%);stop-opacity:1;"/>
<stop offset="0.875" style="stop-color:rgb(97.341919%,97.341919%,97.341919%);stop-opacity:1;"/>
<stop offset="0.890625" style="stop-color:rgb(97.653198%,97.653198%,97.653198%);stop-opacity:1;"/>
<stop offset="0.90625" style="stop-color:rgb(97.966003%,97.966003%,97.966003%);stop-opacity:1;"/>
<stop offset="0.921875" style="stop-color:rgb(98.278809%,98.278809%,98.278809%);stop-opacity:1;"/>
<stop offset="0.9375" style="stop-color:rgb(98.591614%,98.591614%,98.591614%);stop-opacity:1;"/>
<stop offset="0.953125" style="stop-color:rgb(98.902893%,98.902893%,98.902893%);stop-opacity:1;"/>
<stop offset="0.96875" style="stop-color:rgb(99.215698%,99.215698%,99.215698%);stop-opacity:1;"/>
<stop offset="0.984375" style="stop-color:rgb(99.528503%,99.528503%,99.528503%);stop-opacity:1;"/>
<stop offset="1" style="stop-color:rgb(99.841309%,99.841309%,99.841309%);stop-opacity:1;"/>
</linearGradient>
<clipPath id="clip-1575027220788896-6">
  <path d="M 71 0 L 126 0 L 126 21.121094 L 71 21.121094 Z M 71 0 "/>
</clipPath>
<clipPath id="clip-1575027220788896-7">
  <path d="M 39 0 L 103 0 L 103 21.121094 L 39 21.121094 Z M 39 0 "/>
</clipPath>
<clipPath id="clip-1575027220788896-8">
  <path d="M 130 1 L 152 1 L 152 21 L 130 21 Z M 130 1 "/>
</clipPath>
<clipPath id="clip-1575027220788896-9">
  <path d="M 140.953125 0.597656 L 141.246094 0.597656 C 146.75 0.597656 151.210938 5.058594 151.210938 10.5625 C 151.210938 16.0625 146.75 20.523438 141.246094 20.523438 L 140.660156 20.523438 C 135.15625 20.523438 130.695312 16.0625 130.695312 10.5625 C 130.695312 5.058594 135.15625 0.597656 140.660156 0.597656 Z M 140.953125 0.597656 "/>
</clipPath>
<linearGradient id="linear-1575027220788896-2" gradientUnits="userSpaceOnUse" x1="0" y1="25.003086" x2="0" y2="74.996914" gradientTransform="matrix(0.41032,0,0,-0.39856,120.4372,30.489)">
<stop offset="0" style="stop-color:rgb(80.000305%,80.000305%,80.000305%);stop-opacity:1;"/>
<stop offset="0.015625" style="stop-color:rgb(80.155945%,80.155945%,80.155945%);stop-opacity:1;"/>
<stop offset="0.03125" style="stop-color:rgb(80.46875%,80.46875%,80.46875%);stop-opacity:1;"/>
<stop offset="0.046875" style="stop-color:rgb(80.781555%,80.781555%,80.781555%);stop-opacity:1;"/>
<stop offset="0.0625" style="stop-color:rgb(81.092834%,81.092834%,81.092834%);stop-opacity:1;"/>
<stop offset="0.078125" style="stop-color:rgb(81.40564%,81.40564%,81.40564%);stop-opacity:1;"/>
<stop offset="0.09375" style="stop-color:rgb(81.718445%,81.718445%,81.718445%);stop-opacity:1;"/>
<stop offset="0.109375" style="stop-color:rgb(82.03125%,82.03125%,82.03125%);stop-opacity:1;"/>
<stop offset="0.125" style="stop-color:rgb(82.344055%,82.344055%,82.344055%);stop-opacity:1;"/>
<stop offset="0.140625" style="stop-color:rgb(82.655334%,82.655334%,82.655334%);stop-opacity:1;"/>
<stop offset="0.15625" style="stop-color:rgb(82.96814%,82.96814%,82.96814%);stop-opacity:1;"/>
<stop offset="0.171875" style="stop-color:rgb(83.280945%,83.280945%,83.280945%);stop-opacity:1;"/>
<stop offset="0.1875" style="stop-color:rgb(83.59375%,83.59375%,83.59375%);stop-opacity:1;"/>
<stop offset="0.203125" style="stop-color:rgb(83.906555%,83.906555%,83.906555%);stop-opacity:1;"/>
<stop offset="0.21875" style="stop-color:rgb(84.217834%,84.217834%,84.217834%);stop-opacity:1;"/>
<stop offset="0.234375" style="stop-color:rgb(84.53064%,84.53064%,84.53064%);stop-opacity:1;"/>
<stop offset="0.25" style="stop-color:rgb(84.843445%,84.843445%,84.843445%);stop-opacity:1;"/>
<stop offset="0.265625" style="stop-color:rgb(85.15625%,85.15625%,85.15625%);stop-opacity:1;"/>
<stop offset="0.28125" style="stop-color:rgb(85.467529%,85.467529%,85.467529%);stop-opacity:1;"/>
<stop offset="0.296875" style="stop-color:rgb(85.780334%,85.780334%,85.780334%);stop-opacity:1;"/>
<stop offset="0.3125" style="stop-color:rgb(86.09314%,86.09314%,86.09314%);stop-opacity:1;"/>
<stop offset="0.328125" style="stop-color:rgb(86.405945%,86.405945%,86.405945%);stop-opacity:1;"/>
<stop offset="0.34375" style="stop-color:rgb(86.71875%,86.71875%,86.71875%);stop-opacity:1;"/>
<stop offset="0.359375" style="stop-color:rgb(87.030029%,87.030029%,87.030029%);stop-opacity:1;"/>
<stop offset="0.375" style="stop-color:rgb(87.342834%,87.342834%,87.342834%);stop-opacity:1;"/>
<stop offset="0.390625" style="stop-color:rgb(87.65564%,87.65564%,87.65564%);stop-opacity:1;"/>
<stop offset="0.40625" style="stop-color:rgb(87.968445%,87.968445%,87.968445%);stop-opacity:1;"/>
<stop offset="0.421875" style="stop-color:rgb(88.28125%,88.28125%,88.28125%);stop-opacity:1;"/>
<stop offset="0.4375" style="stop-color:rgb(88.592529%,88.592529%,88.592529%);stop-opacity:1;"/>
<stop offset="0.453125" style="stop-color:rgb(88.905334%,88.905334%,88.905334%);stop-opacity:1;"/>
<stop offset="0.46875" style="stop-color:rgb(89.21814%,89.21814%,89.21814%);stop-opacity:1;"/>
<stop offset="0.484375" style="stop-color:rgb(89.530945%,89.530945%,89.530945%);stop-opacity:1;"/>
<stop offset="0.5" style="stop-color:rgb(89.84375%,89.84375%,89.84375%);stop-opacity:1;"/>
<stop offset="0.515625" style="stop-color:rgb(90.155029%,90.155029%,90.155029%);stop-opacity:1;"/>
<stop offset="0.53125" style="stop-color:rgb(90.467834%,90.467834%,90.467834%);stop-opacity:1;"/>
<stop offset="0.546875" style="stop-color:rgb(90.78064%,90.78064%,90.78064%);stop-opacity:1;"/>
<stop offset="0.5625" style="stop-color:rgb(91.093445%,91.093445%,91.093445%);stop-opacity:1;"/>
<stop offset="0.578125" style="stop-color:rgb(91.404724%,91.404724%,91.404724%);stop-opacity:1;"/>
<stop offset="0.59375" style="stop-color:rgb(91.717529%,91.717529%,91.717529%);stop-opacity:1;"/>
<stop offset="0.609375" style="stop-color:rgb(92.030334%,92.030334%,92.030334%);stop-opacity:1;"/>
<stop offset="0.625" style="stop-color:rgb(92.34314%,92.34314%,92.34314%);stop-opacity:1;"/>
<stop offset="0.640625" style="stop-color:rgb(92.654419%,92.654419%,92.654419%);stop-opacity:1;"/>
<stop offset="0.65625" style="stop-color:rgb(92.967224%,92.967224%,92.967224%);stop-opacity:1;"/>
<stop offset="0.671875" style="stop-color:rgb(93.280029%,93.280029%,93.280029%);stop-opacity:1;"/>
<stop offset="0.6875" style="stop-color:rgb(93.592834%,93.592834%,93.592834%);stop-opacity:1;"/>
<stop offset="0.703125" style="stop-color:rgb(93.904114%,93.904114%,93.904114%);stop-opacity:1;"/>
<stop offset="0.71875" style="stop-color:rgb(94.216919%,94.216919%,94.216919%);stop-opacity:1;"/>
<stop offset="0.734375" style="stop-color:rgb(94.529724%,94.529724%,94.529724%);stop-opacity:1;"/>
<stop offset="0.75" style="stop-color:rgb(94.842529%,94.842529%,94.842529%);stop-opacity:1;"/>
<stop offset="0.765625" style="stop-color:rgb(95.153809%,95.153809%,95.153809%);stop-opacity:1;"/>
<stop offset="0.78125" style="stop-color:rgb(95.466614%,95.466614%,95.466614%);stop-opacity:1;"/>
<stop offset="0.796875" style="stop-color:rgb(95.779419%,95.779419%,95.779419%);stop-opacity:1;"/>
<stop offset="0.8125" style="stop-color:rgb(96.092224%,96.092224%,96.092224%);stop-opacity:1;"/>
<stop offset="0.828125" style="stop-color:rgb(96.403503%,96.403503%,96.403503%);stop-opacity:1;"/>
<stop offset="0.84375" style="stop-color:rgb(96.716309%,96.716309%,96.716309%);stop-opacity:1;"/>
<stop offset="0.859375" style="stop-color:rgb(97.029114%,97.029114%,97.029114%);stop-opacity:1;"/>
<stop offset="0.875" style="stop-color:rgb(97.341919%,97.341919%,97.341919%);stop-opacity:1;"/>
<stop offset="0.890625" style="stop-color:rgb(97.653198%,97.653198%,97.653198%);stop-opacity:1;"/>
<stop offset="0.90625" style="stop-color:rgb(97.966003%,97.966003%,97.966003%);stop-opacity:1;"/>
<stop offset="0.921875" style="stop-color:rgb(98.278809%,98.278809%,98.278809%);stop-opacity:1;"/>
<stop offset="0.9375" style="stop-color:rgb(98.591614%,98.591614%,98.591614%);stop-opacity:1;"/>
<stop offset="0.953125" style="stop-color:rgb(98.902893%,98.902893%,98.902893%);stop-opacity:1;"/>
<stop offset="0.96875" style="stop-color:rgb(99.215698%,99.215698%,99.215698%);stop-opacity:1;"/>
<stop offset="0.984375" style="stop-color:rgb(99.528503%,99.528503%,99.528503%);stop-opacity:1;"/>
<stop offset="1" style="stop-color:rgb(99.841309%,99.841309%,99.841309%);stop-opacity:1;"/>
</linearGradient>
<clipPath id="clip-1575027220788896-10">
  <path d="M 113 0 L 169 0 L 169 21.121094 L 113 21.121094 Z M 113 0 "/>
</clipPath>
<clipPath id="clip-1575027220788896-11">
  <path d="M 88 0 L 151 0 L 151 21.121094 L 88 21.121094 Z M 88 0 "/>
</clipPath>
<clipPath id="clip-1575027220788896-12">
  <path d="M 173 1 L 194 1 L 194 21 L 173 21 Z M 173 1 "/>
</clipPath>
<clipPath id="clip-1575027220788896-13">
  <path d="M 183.472656 0.597656 L 183.769531 0.597656 C 189.269531 0.597656 193.730469 5.058594 193.730469 10.5625 C 193.730469 16.0625 189.269531 20.523438 183.769531 20.523438 L 183.179688 20.523438 C 177.675781 20.523438 173.214844 16.0625 173.214844 10.5625 C 173.214844 5.058594 177.675781 0.597656 183.179688 0.597656 Z M 183.472656 0.597656 "/>
</clipPath>
<linearGradient id="linear-1575027220788896-3" gradientUnits="userSpaceOnUse" x1="0" y1="25.003086" x2="0" y2="74.996914" gradientTransform="matrix(0.41032,0,0,-0.39856,162.9574,30.489)">
<stop offset="0" style="stop-color:rgb(80.000305%,80.000305%,80.000305%);stop-opacity:1;"/>
<stop offset="0.015625" style="stop-color:rgb(80.155945%,80.155945%,80.155945%);stop-opacity:1;"/>
<stop offset="0.03125" style="stop-color:rgb(80.46875%,80.46875%,80.46875%);stop-opacity:1;"/>
<stop offset="0.046875" style="stop-color:rgb(80.781555%,80.781555%,80.781555%);stop-opacity:1;"/>
<stop offset="0.0625" style="stop-color:rgb(81.092834%,81.092834%,81.092834%);stop-opacity:1;"/>
<stop offset="0.078125" style="stop-color:rgb(81.40564%,81.40564%,81.40564%);stop-opacity:1;"/>
<stop offset="0.09375" style="stop-color:rgb(81.718445%,81.718445%,81.718445%);stop-opacity:1;"/>
<stop offset="0.109375" style="stop-color:rgb(82.03125%,82.03125%,82.03125%);stop-opacity:1;"/>
<stop offset="0.125" style="stop-color:rgb(82.344055%,82.344055%,82.344055%);stop-opacity:1;"/>
<stop offset="0.140625" style="stop-color:rgb(82.655334%,82.655334%,82.655334%);stop-opacity:1;"/>
<stop offset="0.15625" style="stop-color:rgb(82.96814%,82.96814%,82.96814%);stop-opacity:1;"/>
<stop offset="0.171875" style="stop-color:rgb(83.280945%,83.280945%,83.280945%);stop-opacity:1;"/>
<stop offset="0.1875" style="stop-color:rgb(83.59375%,83.59375%,83.59375%);stop-opacity:1;"/>
<stop offset="0.203125" style="stop-color:rgb(83.906555%,83.906555%,83.906555%);stop-opacity:1;"/>
<stop offset="0.21875" style="stop-color:rgb(84.217834%,84.217834%,84.217834%);stop-opacity:1;"/>
<stop offset="0.234375" style="stop-color:rgb(84.53064%,84.53064%,84.53064%);stop-opacity:1;"/>
<stop offset="0.25" style="stop-color:rgb(84.843445%,84.843445%,84.843445%);stop-opacity:1;"/>
<stop offset="0.265625" style="stop-color:rgb(85.15625%,85.15625%,85.15625%);stop-opacity:1;"/>
<stop offset="0.28125" style="stop-color:rgb(85.467529%,85.467529%,85.467529%);stop-opacity:1;"/>
<stop offset="0.296875" style="stop-color:rgb(85.780334%,85.780334%,85.780334%);stop-opacity:1;"/>
<stop offset="0.3125" style="stop-color:rgb(86.09314%,86.09314%,86.09314%);stop-opacity:1;"/>
<stop offset="0.328125" style="stop-color:rgb(86.405945%,86.405945%,86.405945%);stop-opacity:1;"/>
<stop offset="0.34375" style="stop-color:rgb(86.71875%,86.71875%,86.71875%);stop-opacity:1;"/>
<stop offset="0.359375" style="stop-color:rgb(87.030029%,87.030029%,87.030029%);stop-opacity:1;"/>
<stop offset="0.375" style="stop-color:rgb(87.342834%,87.342834%,87.342834%);stop-opacity:1;"/>
<stop offset="0.390625" style="stop-color:rgb(87.65564%,87.65564%,87.65564%);stop-opacity:1;"/>
<stop offset="0.40625" style="stop-color:rgb(87.968445%,87.968445%,87.968445%);stop-opacity:1;"/>
<stop offset="0.421875" style="stop-color:rgb(88.28125%,88.28125%,88.28125%);stop-opacity:1;"/>
<stop offset="0.4375" style="stop-color:rgb(88.592529%,88.592529%,88.592529%);stop-opacity:1;"/>
<stop offset="0.453125" style="stop-color:rgb(88.905334%,88.905334%,88.905334%);stop-opacity:1;"/>
<stop offset="0.46875" style="stop-color:rgb(89.21814%,89.21814%,89.21814%);stop-opacity:1;"/>
<stop offset="0.484375" style="stop-color:rgb(89.530945%,89.530945%,89.530945%);stop-opacity:1;"/>
<stop offset="0.5" style="stop-color:rgb(89.84375%,89.84375%,89.84375%);stop-opacity:1;"/>
<stop offset="0.515625" style="stop-color:rgb(90.155029%,90.155029%,90.155029%);stop-opacity:1;"/>
<stop offset="0.53125" style="stop-color:rgb(90.467834%,90.467834%,90.467834%);stop-opacity:1;"/>
<stop offset="0.546875" style="stop-color:rgb(90.78064%,90.78064%,90.78064%);stop-opacity:1;"/>
<stop offset="0.5625" style="stop-color:rgb(91.093445%,91.093445%,91.093445%);stop-opacity:1;"/>
<stop offset="0.578125" style="stop-color:rgb(91.404724%,91.404724%,91.404724%);stop-opacity:1;"/>
<stop offset="0.59375" style="stop-color:rgb(91.717529%,91.717529%,91.717529%);stop-opacity:1;"/>
<stop offset="0.609375" style="stop-color:rgb(92.030334%,92.030334%,92.030334%);stop-opacity:1;"/>
<stop offset="0.625" style="stop-color:rgb(92.34314%,92.34314%,92.34314%);stop-opacity:1;"/>
<stop offset="0.640625" style="stop-color:rgb(92.654419%,92.654419%,92.654419%);stop-opacity:1;"/>
<stop offset="0.65625" style="stop-color:rgb(92.967224%,92.967224%,92.967224%);stop-opacity:1;"/>
<stop offset="0.671875" style="stop-color:rgb(93.280029%,93.280029%,93.280029%);stop-opacity:1;"/>
<stop offset="0.6875" style="stop-color:rgb(93.592834%,93.592834%,93.592834%);stop-opacity:1;"/>
<stop offset="0.703125" style="stop-color:rgb(93.904114%,93.904114%,93.904114%);stop-opacity:1;"/>
<stop offset="0.71875" style="stop-color:rgb(94.216919%,94.216919%,94.216919%);stop-opacity:1;"/>
<stop offset="0.734375" style="stop-color:rgb(94.529724%,94.529724%,94.529724%);stop-opacity:1;"/>
<stop offset="0.75" style="stop-color:rgb(94.842529%,94.842529%,94.842529%);stop-opacity:1;"/>
<stop offset="0.765625" style="stop-color:rgb(95.153809%,95.153809%,95.153809%);stop-opacity:1;"/>
<stop offset="0.78125" style="stop-color:rgb(95.466614%,95.466614%,95.466614%);stop-opacity:1;"/>
<stop offset="0.796875" style="stop-color:rgb(95.779419%,95.779419%,95.779419%);stop-opacity:1;"/>
<stop offset="0.8125" style="stop-color:rgb(96.092224%,96.092224%,96.092224%);stop-opacity:1;"/>
<stop offset="0.828125" style="stop-color:rgb(96.403503%,96.403503%,96.403503%);stop-opacity:1;"/>
<stop offset="0.84375" style="stop-color:rgb(96.716309%,96.716309%,96.716309%);stop-opacity:1;"/>
<stop offset="0.859375" style="stop-color:rgb(97.029114%,97.029114%,97.029114%);stop-opacity:1;"/>
<stop offset="0.875" style="stop-color:rgb(97.341919%,97.341919%,97.341919%);stop-opacity:1;"/>
<stop offset="0.890625" style="stop-color:rgb(97.653198%,97.653198%,97.653198%);stop-opacity:1;"/>
<stop offset="0.90625" style="stop-color:rgb(97.966003%,97.966003%,97.966003%);stop-opacity:1;"/>
<stop offset="0.921875" style="stop-color:rgb(98.278809%,98.278809%,98.278809%);stop-opacity:1;"/>
<stop offset="0.9375" style="stop-color:rgb(98.591614%,98.591614%,98.591614%);stop-opacity:1;"/>
<stop offset="0.953125" style="stop-color:rgb(98.902893%,98.902893%,98.902893%);stop-opacity:1;"/>
<stop offset="0.96875" style="stop-color:rgb(99.215698%,99.215698%,99.215698%);stop-opacity:1;"/>
<stop offset="0.984375" style="stop-color:rgb(99.528503%,99.528503%,99.528503%);stop-opacity:1;"/>
<stop offset="1" style="stop-color:rgb(99.841309%,99.841309%,99.841309%);stop-opacity:1;"/>
</linearGradient>
<clipPath id="clip-1575027220788896-14">
  <path d="M 156 0 L 211 0 L 211 21.121094 L 156 21.121094 Z M 156 0 "/>
</clipPath>
<clipPath id="clip-1575027220788896-15">
  <path d="M 136 0 L 188 0 L 188 21.121094 L 136 21.121094 Z M 136 0 "/>
</clipPath>
<clipPath id="clip-1575027220788896-16">
  <path d="M 178 0 L 233 0 L 233 21.121094 L 178 21.121094 Z M 178 0 "/>
</clipPath>
<clipPath id="clip-1575027220788896-17">
  <path d="M 257 1 L 279.84375 1 L 279.84375 21 L 257 21 Z M 257 1 "/>
</clipPath>
<clipPath id="clip-1575027220788896-18">
  <path d="M 268.515625 0.597656 L 269.285156 0.597656 C 274.789062 0.597656 279.246094 5.058594 279.246094 10.5625 C 279.246094 16.0625 274.789062 20.523438 269.285156 20.523438 L 267.742188 20.523438 C 262.242188 20.523438 257.78125 16.0625 257.78125 10.5625 C 257.78125 5.058594 262.242188 0.597656 267.742188 0.597656 Z M 268.515625 0.597656 "/>
</clipPath>
<linearGradient id="linear-1575027220788896-4" gradientUnits="userSpaceOnUse" x1="0" y1="25.003086" x2="0" y2="74.996914" gradientTransform="matrix(0.4294,0,0,-0.39856,247.04386,30.489)">
<stop offset="0" style="stop-color:rgb(80.000305%,80.000305%,100%);stop-opacity:1;"/>
<stop offset="0.015625" style="stop-color:rgb(80.155945%,80.155945%,100%);stop-opacity:1;"/>
<stop offset="0.03125" style="stop-color:rgb(80.46875%,80.46875%,100%);stop-opacity:1;"/>
<stop offset="0.046875" style="stop-color:rgb(80.781555%,80.781555%,100%);stop-opacity:1;"/>
<stop offset="0.0625" style="stop-color:rgb(81.092834%,81.092834%,100%);stop-opacity:1;"/>
<stop offset="0.078125" style="stop-color:rgb(81.40564%,81.40564%,100%);stop-opacity:1;"/>
<stop offset="0.09375" style="stop-color:rgb(81.718445%,81.718445%,100%);stop-opacity:1;"/>
<stop offset="0.109375" style="stop-color:rgb(82.03125%,82.03125%,100%);stop-opacity:1;"/>
<stop offset="0.125" style="stop-color:rgb(82.344055%,82.344055%,100%);stop-opacity:1;"/>
<stop offset="0.140625" style="stop-color:rgb(82.655334%,82.655334%,100%);stop-opacity:1;"/>
<stop offset="0.15625" style="stop-color:rgb(82.96814%,82.96814%,100%);stop-opacity:1;"/>
<stop offset="0.171875" style="stop-color:rgb(83.280945%,83.280945%,100%);stop-opacity:1;"/>
<stop offset="0.1875" style="stop-color:rgb(83.59375%,83.59375%,100%);stop-opacity:1;"/>
<stop offset="0.203125" style="stop-color:rgb(83.906555%,83.906555%,100%);stop-opacity:1;"/>
<stop offset="0.21875" style="stop-color:rgb(84.217834%,84.217834%,100%);stop-opacity:1;"/>
<stop offset="0.234375" style="stop-color:rgb(84.53064%,84.53064%,100%);stop-opacity:1;"/>
<stop offset="0.25" style="stop-color:rgb(84.843445%,84.843445%,100%);stop-opacity:1;"/>
<stop offset="0.265625" style="stop-color:rgb(85.15625%,85.15625%,100%);stop-opacity:1;"/>
<stop offset="0.28125" style="stop-color:rgb(85.467529%,85.467529%,100%);stop-opacity:1;"/>
<stop offset="0.296875" style="stop-color:rgb(85.780334%,85.780334%,100%);stop-opacity:1;"/>
<stop offset="0.3125" style="stop-color:rgb(86.09314%,86.09314%,100%);stop-opacity:1;"/>
<stop offset="0.328125" style="stop-color:rgb(86.405945%,86.405945%,100%);stop-opacity:1;"/>
<stop offset="0.34375" style="stop-color:rgb(86.71875%,86.71875%,100%);stop-opacity:1;"/>
<stop offset="0.359375" style="stop-color:rgb(87.030029%,87.030029%,100%);stop-opacity:1;"/>
<stop offset="0.375" style="stop-color:rgb(87.342834%,87.342834%,100%);stop-opacity:1;"/>
<stop offset="0.390625" style="stop-color:rgb(87.65564%,87.65564%,100%);stop-opacity:1;"/>
<stop offset="0.40625" style="stop-color:rgb(87.968445%,87.968445%,100%);stop-opacity:1;"/>
<stop offset="0.421875" style="stop-color:rgb(88.28125%,88.28125%,100%);stop-opacity:1;"/>
<stop offset="0.4375" style="stop-color:rgb(88.592529%,88.592529%,100%);stop-opacity:1;"/>
<stop offset="0.453125" style="stop-color:rgb(88.905334%,88.905334%,100%);stop-opacity:1;"/>
<stop offset="0.46875" style="stop-color:rgb(89.21814%,89.21814%,100%);stop-opacity:1;"/>
<stop offset="0.484375" style="stop-color:rgb(89.530945%,89.530945%,100%);stop-opacity:1;"/>
<stop offset="0.5" style="stop-color:rgb(89.84375%,89.84375%,100%);stop-opacity:1;"/>
<stop offset="0.515625" style="stop-color:rgb(90.155029%,90.155029%,100%);stop-opacity:1;"/>
<stop offset="0.53125" style="stop-color:rgb(90.467834%,90.467834%,100%);stop-opacity:1;"/>
<stop offset="0.546875" style="stop-color:rgb(90.78064%,90.78064%,100%);stop-opacity:1;"/>
<stop offset="0.5625" style="stop-color:rgb(91.093445%,91.093445%,100%);stop-opacity:1;"/>
<stop offset="0.578125" style="stop-color:rgb(91.404724%,91.404724%,100%);stop-opacity:1;"/>
<stop offset="0.59375" style="stop-color:rgb(91.717529%,91.717529%,100%);stop-opacity:1;"/>
<stop offset="0.609375" style="stop-color:rgb(92.030334%,92.030334%,100%);stop-opacity:1;"/>
<stop offset="0.625" style="stop-color:rgb(92.34314%,92.34314%,100%);stop-opacity:1;"/>
<stop offset="0.640625" style="stop-color:rgb(92.654419%,92.654419%,100%);stop-opacity:1;"/>
<stop offset="0.65625" style="stop-color:rgb(92.967224%,92.967224%,100%);stop-opacity:1;"/>
<stop offset="0.671875" style="stop-color:rgb(93.280029%,93.280029%,100%);stop-opacity:1;"/>
<stop offset="0.6875" style="stop-color:rgb(93.592834%,93.592834%,100%);stop-opacity:1;"/>
<stop offset="0.703125" style="stop-color:rgb(93.904114%,93.904114%,100%);stop-opacity:1;"/>
<stop offset="0.71875" style="stop-color:rgb(94.216919%,94.216919%,100%);stop-opacity:1;"/>
<stop offset="0.734375" style="stop-color:rgb(94.529724%,94.529724%,100%);stop-opacity:1;"/>
<stop offset="0.75" style="stop-color:rgb(94.842529%,94.842529%,100%);stop-opacity:1;"/>
<stop offset="0.765625" style="stop-color:rgb(95.153809%,95.153809%,100%);stop-opacity:1;"/>
<stop offset="0.78125" style="stop-color:rgb(95.466614%,95.466614%,100%);stop-opacity:1;"/>
<stop offset="0.796875" style="stop-color:rgb(95.779419%,95.779419%,100%);stop-opacity:1;"/>
<stop offset="0.8125" style="stop-color:rgb(96.092224%,96.092224%,100%);stop-opacity:1;"/>
<stop offset="0.828125" style="stop-color:rgb(96.403503%,96.403503%,100%);stop-opacity:1;"/>
<stop offset="0.84375" style="stop-color:rgb(96.716309%,96.716309%,100%);stop-opacity:1;"/>
<stop offset="0.859375" style="stop-color:rgb(97.029114%,97.029114%,100%);stop-opacity:1;"/>
<stop offset="0.875" style="stop-color:rgb(97.341919%,97.341919%,100%);stop-opacity:1;"/>
<stop offset="0.890625" style="stop-color:rgb(97.653198%,97.653198%,100%);stop-opacity:1;"/>
<stop offset="0.90625" style="stop-color:rgb(97.966003%,97.966003%,100%);stop-opacity:1;"/>
<stop offset="0.921875" style="stop-color:rgb(98.278809%,98.278809%,100%);stop-opacity:1;"/>
<stop offset="0.9375" style="stop-color:rgb(98.591614%,98.591614%,100%);stop-opacity:1;"/>
<stop offset="0.953125" style="stop-color:rgb(98.902893%,98.902893%,100%);stop-opacity:1;"/>
<stop offset="0.96875" style="stop-color:rgb(99.215698%,99.215698%,100%);stop-opacity:1;"/>
<stop offset="0.984375" style="stop-color:rgb(99.528503%,99.528503%,100%);stop-opacity:1;"/>
<stop offset="1" style="stop-color:rgb(99.841309%,99.841309%,100%);stop-opacity:1;"/>
</linearGradient>
<clipPath id="clip-1575027220788896-19">
  <path d="M 240 0 L 279.84375 0 L 279.84375 21.121094 L 240 21.121094 Z M 240 0 "/>
</clipPath>
</defs>
<g id="surface1">
<g clip-path="url(#clip-1575027220788896-1)" clip-rule="nonzero">
<g clip-path="url(#clip-1575027220788896-2)" clip-rule="nonzero">
<path style=" stroke:none;fill-rule:nonzero;fill:url(#linear-1575027220788896-0);" d="M 0.597656 20.523438 L 0.597656 0.597656 L 54.535156 0.597656 L 54.535156 20.523438 Z M 0.597656 20.523438 "/>
</g>
</g>
<g clip-path="url(#clip-1575027220788896-3)" clip-rule="nonzero">
<path style="fill:none;stroke-width:1.19553;stroke-linecap:butt;stroke-linejoin:miter;stroke:rgb(100%,50%,50%);stroke-opacity:1;stroke-miterlimit:10;" d="M -70.866594 9.963344 L -53.858781 9.963344 C -48.358781 9.963344 -43.897844 5.502406 -43.897844 -0.0015 C -43.897844 -5.5015 -48.358781 -9.962437 -53.858781 -9.962437 L -87.874406 -9.962437 C -93.374406 -9.962437 -97.835344 -5.5015 -97.835344 -0.0015 C -97.835344 5.502406 -93.374406 9.963344 -87.874406 9.963344 Z M -70.866594 9.963344 " transform="matrix(1,0,0,-1,98.433,10.561)"/>
</g>
<g style="fill:rgb(0%,0%,0%);fill-opacity:1;">
  <use xlink:href="#glyph-1575027220788896-0-1" x="4.598" y="12.996"/>
  <use xlink:href="#glyph-1575027220788896-0-2" x="10.133243" y="12.996"/>
  <use xlink:href="#glyph-1575027220788896-0-3" x="14.007713" y="12.996"/>
  <use xlink:href="#glyph-1575027220788896-0-4" x="18.435111" y="12.996"/>
</g>
<g style="fill:rgb(0%,0%,0%);fill-opacity:1;">
  <use xlink:href="#glyph-1575027220788896-0-5" x="27.287913" y="12.996"/>
  <use xlink:href="#glyph-1575027220788896-0-6" x="30.055534" y="12.996"/>
  <use xlink:href="#glyph-1575027220788896-0-4" x="35.590777" y="12.996"/>
  <use xlink:href="#glyph-1575027220788896-0-7" x="41.12602" y="12.996"/>
  <use xlink:href="#glyph-1575027220788896-0-2" x="46.661262" y="12.996"/>
</g>
<g clip-path="url(#clip-1575027220788896-4)" clip-rule="nonzero">
<g clip-path="url(#clip-1575027220788896-5)" clip-rule="nonzero">
<path style=" stroke:none;fill-rule:nonzero;fill:url(#linear-1575027220788896-1);" d="M 88.175781 20.523438 L 88.175781 0.597656 L 108.691406 0.597656 L 108.691406 20.523438 Z M 88.175781 20.523438 "/>
</g>
</g>
<g clip-path="url(#clip-1575027220788896-6)" clip-rule="nonzero">
<path style="fill:none;stroke-width:1.19553;stroke-linecap:butt;stroke-linejoin:miter;stroke:rgb(50%,50%,50%);stroke-opacity:1;stroke-miterlimit:10;" d="M 0.00059375 9.963344 L 0.293562 9.963344 C 5.797469 9.963344 10.258406 5.502406 10.258406 -0.0015 C 10.258406 -5.5015 5.797469 -9.962437 0.293562 -9.962437 L -0.292375 -9.962437 C -5.796281 -9.962437 -10.257219 -5.5015 -10.257219 -0.0015 C -10.257219 5.502406 -5.796281 9.963344 -0.292375 9.963344 Z M 0.00059375 9.963344 " transform="matrix(1,0,0,-1,98.433,10.561)"/>
</g>
<g style="fill:rgb(0%,0%,0%);fill-opacity:1;">
  <use xlink:href="#glyph-1575027220788896-1-1" x="92.072" y="13.217"/>
</g>
<g style="fill:rgb(0%,0%,0%);fill-opacity:1;">
  <use xlink:href="#glyph-1575027220788896-2-1" x="100.325" y="14.712"/>
</g>
<g clip-path="url(#clip-1575027220788896-7)" clip-rule="nonzero">
<path style="fill:none;stroke-width:1.19553;stroke-linecap:butt;stroke-linejoin:miter;stroke:rgb(39.99939%,39.99939%,39.99939%);stroke-opacity:1;stroke-miterlimit:10;" d="M -13.206438 -0.0015 L -41.905656 0.00240625 " transform="matrix(1,0,0,-1,98.433,10.561)"/>
</g>
<path style="fill:none;stroke-width:0.9564;stroke-linecap:round;stroke-linejoin:round;stroke:rgb(39.99939%,39.99939%,39.99939%);stroke-opacity:1;stroke-miterlimit:10;" d="M -1.91455 2.549281 C -1.754394 1.59225 -0.0004875 0.158656 0.479981 -0.0015 C -0.0004875 -0.15775 -1.754394 -1.59525 -1.91455 -2.552281 " transform="matrix(1,0,0,-1,85.22705,10.561)"/>
<g clip-path="url(#clip-1575027220788896-8)" clip-rule="nonzero">
<g clip-path="url(#clip-1575027220788896-9)" clip-rule="nonzero">
<path style=" stroke:none;fill-rule:nonzero;fill:url(#linear-1575027220788896-2);" d="M 130.695312 20.523438 L 130.695312 0.597656 L 151.210938 0.597656 L 151.210938 20.523438 Z M 130.695312 20.523438 "/>
</g>
</g>
<g clip-path="url(#clip-1575027220788896-10)" clip-rule="nonzero">
<path style="fill:none;stroke-width:1.19553;stroke-linecap:butt;stroke-linejoin:miter;stroke:rgb(50%,50%,50%);stroke-opacity:1;stroke-miterlimit:10;" d="M 42.520125 9.963344 L 42.813094 9.963344 C 48.317 9.963344 52.777937 5.502406 52.777937 -0.0015 C 52.777937 -5.5015 48.317 -9.962437 42.813094 -9.962437 L 42.227156 -9.962437 C 36.72325 -9.962437 32.262312 -5.5015 32.262312 -0.0015 C 32.262312 5.502406 36.72325 9.963344 42.227156 9.963344 Z M 42.520125 9.963344 " transform="matrix(1,0,0,-1,98.433,10.561)"/>
</g>
<g style="fill:rgb(0%,0%,0%);fill-opacity:1;">
  <use xlink:href="#glyph-1575027220788896-1-1" x="134.591" y="13.217"/>
</g>
<g style="fill:rgb(0%,0%,0%);fill-opacity:1;">
  <use xlink:href="#glyph-1575027220788896-2-2" x="142.845" y="14.712"/>
</g>
<g clip-path="url(#clip-1575027220788896-11)" clip-rule="nonzero">
<path style="fill:none;stroke-width:1.59404;stroke-linecap:butt;stroke-linejoin:miter;stroke:rgb(39.99939%,39.99939%,39.99939%);stroke-opacity:1;stroke-miterlimit:10;" d="M 29.067 -0.0015 L 12.250594 0.00240625 " transform="matrix(1,0,0,-1,98.433,10.561)"/>
</g>
<path style="fill:none;stroke-width:1.27522;stroke-linecap:round;stroke-linejoin:round;stroke:rgb(39.99939%,39.99939%,39.99939%);stroke-opacity:1;stroke-miterlimit:10;" d="M -2.271598 3.02975 C -2.084098 1.893031 0.00184 0.189906 0.568246 -0.0015 C 0.00184 -0.189 -2.084098 -1.892125 -2.271598 -3.028844 " transform="matrix(1,0,0,-1,127.49816,10.561)"/>
<g clip-path="url(#clip-1575027220788896-12)" clip-rule="nonzero">
<g clip-path="url(#clip-1575027220788896-13)" clip-rule="nonzero">
<path style=" stroke:none;fill-rule:nonzero;fill:url(#linear-1575027220788896-3);" d="M 173.214844 20.523438 L 173.214844 0.597656 L 193.730469 0.597656 L 193.730469 20.523438 Z M 173.214844 20.523438 "/>
</g>
</g>
<g clip-path="url(#clip-1575027220788896-14)" clip-rule="nonzero">
<path style="fill:none;stroke-width:1.19553;stroke-linecap:butt;stroke-linejoin:miter;stroke:rgb(50%,50%,50%);stroke-opacity:1;stroke-miterlimit:10;" d="M 85.039656 9.963344 L 85.336531 9.963344 C 90.836531 9.963344 95.297469 5.502406 95.297469 -0.0015 C 95.297469 -5.5015 90.836531 -9.962437 85.336531 -9.962437 L 84.746687 -9.962437 C 79.242781 -9.962437 74.781844 -5.5015 74.781844 -0.0015 C 74.781844 5.502406 79.242781 9.963344 84.746687 9.963344 Z M 85.039656 9.963344 " transform="matrix(1,0,0,-1,98.433,10.561)"/>
</g>
<g style="fill:rgb(0%,0%,0%);fill-opacity:1;">
  <use xlink:href="#glyph-1575027220788896-1-1" x="177.111" y="13.217"/>
</g>
<g style="fill:rgb(0%,0%,0%);fill-opacity:1;">
  <use xlink:href="#glyph-1575027220788896-2-3" x="185.365" y="14.712"/>
</g>
<g clip-path="url(#clip-1575027220788896-15)" clip-rule="nonzero">
<path style="fill:none;stroke-width:1.19553;stroke-linecap:butt;stroke-linejoin:miter;stroke:rgb(39.99939%,39.99939%,39.99939%);stroke-opacity:1;stroke-miterlimit:10;" d="M 71.832625 -0.0015 L 54.770125 0.00240625 " transform="matrix(1,0,0,-1,98.433,10.561)"/>
</g>
<path style="fill:none;stroke-width:0.9564;stroke-linecap:round;stroke-linejoin:round;stroke:rgb(39.99939%,39.99939%,39.99939%);stroke-opacity:1;stroke-miterlimit:10;" d="M -1.911991 2.549281 C -1.751835 1.59225 -0.001835 0.158656 0.478634 -0.0015 C -0.001835 -0.15775 -1.751835 -1.59525 -1.911991 -2.552281 " transform="matrix(1,0,0,-1,170.26746,10.561)"/>
<g style="fill:rgb(0%,0%,0%);fill-opacity:1;">
  <use xlink:href="#glyph-1575027220788896-1-2" x="220.181" y="11.086"/>
</g>
<g style="fill:rgb(0%,0%,0%);fill-opacity:1;">
  <use xlink:href="#glyph-1575027220788896-1-2" x="224.60242" y="11.086"/>
</g>
<g style="fill:rgb(0%,0%,0%);fill-opacity:1;">
  <use xlink:href="#glyph-1575027220788896-1-2" x="229.033802" y="11.086"/>
</g>
<g clip-path="url(#clip-1575027220788896-16)" clip-rule="nonzero">
<path style="fill:none;stroke-width:1.19553;stroke-linecap:butt;stroke-linejoin:miter;stroke:rgb(39.99939%,39.99939%,39.99939%);stroke-opacity:1;stroke-miterlimit:10;" d="M 117.274031 -0.0015 L 97.289656 0.00240625 " transform="matrix(1,0,0,-1,98.433,10.561)"/>
</g>
<path style="fill:none;stroke-width:0.9564;stroke-linecap:round;stroke-linejoin:round;stroke:rgb(39.99939%,39.99939%,39.99939%);stroke-opacity:1;stroke-miterlimit:10;" d="M -1.912841 2.549161 C -1.752685 1.59213 0.00122125 0.158536 0.477784 -0.00162 C 0.00122125 -0.15787 -1.752685 -1.59537 -1.912841 -2.552401 " transform="matrix(1,0,0,-1,215.70581,10.56088)"/>
<g clip-path="url(#clip-1575027220788896-17)" clip-rule="nonzero">
<g clip-path="url(#clip-1575027220788896-18)" clip-rule="nonzero">
<path style=" stroke:none;fill-rule:nonzero;fill:url(#linear-1575027220788896-4);" d="M 257.78125 20.523438 L 257.78125 0.597656 L 279.246094 0.597656 L 279.246094 20.523438 Z M 257.78125 20.523438 "/>
</g>
</g>
<g clip-path="url(#clip-1575027220788896-19)" clip-rule="nonzero">
<path style="fill:none;stroke-width:1.19553;stroke-linecap:butt;stroke-linejoin:miter;stroke:rgb(50%,50%,100%);stroke-opacity:1;stroke-miterlimit:10;" d="M 170.082625 9.963344 L 170.852156 9.963344 C 176.356063 9.963344 180.813094 5.502406 180.813094 -0.0015 C 180.813094 -5.5015 176.356063 -9.962437 170.852156 -9.962437 L 169.309188 -9.962437 C 163.809188 -9.962437 159.34825 -5.5015 159.34825 -0.0015 C 159.34825 5.502406 163.809188 9.963344 169.309188 9.963344 Z M 170.082625 9.963344 " transform="matrix(1,0,0,-1,98.433,10.561)"/>
</g>
<g style="fill:rgb(0%,0%,0%);fill-opacity:1;">
  <use xlink:href="#glyph-1575027220788896-1-1" x="261.673" y="13.217"/>
</g>
<g style="fill:rgb(0%,0%,0%);fill-opacity:1;">
  <use xlink:href="#glyph-1575027220788896-3-1" x="269.927" y="14.712"/>
</g>
<path style="fill:none;stroke-width:1.19553;stroke-linecap:butt;stroke-linejoin:miter;stroke:rgb(39.99939%,39.99939%,39.99939%);stroke-opacity:1;stroke-miterlimit:10;" d="M 156.399031 -0.0015 L 136.891219 -0.0015 " transform="matrix(1,0,0,-1,98.433,10.561)"/>
<path style="fill:none;stroke-width:0.9564;stroke-linecap:round;stroke-linejoin:round;stroke:rgb(39.99939%,39.99939%,39.99939%);stroke-opacity:1;stroke-miterlimit:10;" d="M -1.913101 2.549281 C -1.752945 1.59225 0.00096125 0.158656 0.477524 -0.0015 C 0.00096125 -0.15775 -1.752945 -1.59525 -1.913101 -2.552281 " transform="matrix(1,0,0,-1,254.83107,10.561)"/>
</g>
</svg>

